[
	{
		"coord" : [
			
			"[0-20,0]", 
            "[0,0-20]",
            "[20, 0-20]",
            "[0-20, 20]",

            "[8, 9]",
            "[12, 9]",
            "[8-12, 12]",
            "[8, 10-11]",
            "[12, 10-11]",

            "[2-4, 2-3]",
            "[2-4, 5]",
            "[6-8, 2-3]",

            "[10, 1-3]",

            "[12-14, 2-3]",
            "[16-18, 5]",
            "[16-18, 2-3]",

            "[6, 5-9]",
            "[7-8, 7]",

            "[14, 5-9]",
            "[12-14, 7]",

            "[8-12, 5]",
            "[10, 6-7]",

            "[16-19, 7-9]",
            "[16-19, 11-13]",

            "[1-4, 7-9]",
            "[1-4, 11-13]",

            "[6, 11-13]",
            "[14, 11-13]",

            "[8-12, 14]",
            "[10, 15]",

            "[8-12, 17-18]",
            "[8, 16]",
            "[12,16]",

            "[2-6, 15]",
            "[6, 16-18]",

            "[14-18, 15]",
            "[14, 16-18]",

            "[2-4, 17-18]",

            "[16-18, 17-18]"
		],
		"type" : "blue_square"
	},
	{
		"coord" : [
			
			"[1-19,19]",
			"[1,14-18]",
			"[19,14-18]",
			"[2-5,16]",
			"[5,17-18]",
			"[9-11,16]",
			"[15-18,16]",
			"[15,17-18]",
			"[2-6,14]",
			"[14-18,14]",
			"[7,8-18]",
			"[13,8-18]",
			"[8-12,8]",
			"[8-9,13]",
			"[11-12,13]",
			"[8-9,15]",
			"[11-12,15]",
			"[1,2-6]",
			"[5,2-13]",
			"[19,2-6]",
			"[15,2-13]",
			"[1-9,1]",
			"[11-19,1]",
			"[2-4, 4]",
			"[2-4, 6]",
			"[16-18, 4]",
			"[16-18, 6]",
			"[6-14, 4]",
			"[7-9, 6]",
			"[11-13, 6]",
			"[7, 5]",
			"[13, 5]",
			"[11, 7]",
			"[9, 7]",
			"[1-4, 10]",
			"[6, 10]",
			"[14, 10]",
			"[16-19, 10]",
			"[9, 2-3]",
			"[11, 2-3]"
		],
		"type" : "dot"
	},
	{
		"coord" : [
			
			"[10, 13]"
		],
		"type" : "pacman"
	},
	{
		"coord" : [
			
			"[10, 10]",
			"[9-10, 11]"
		],
		"type" : "ghosts"
	}
	
]
