[
	{
		"coord" : [
			"[0-43,13]",
			"[0, 12]",
			"[43,12]",
			"[32, 10]",
			"[34, 10]",
			"[36, 10]",
			"[21-24, 8]"
		],
		"type" : "p1"
	},
	{
		"coord" : [
			"[5-6, 12]",
			"[5-6, 11]"
		],
		"type" : "green"
	},
	{
		"coord" : [
			"[13, 10-12]",
			"[16, 9-12]"
		],
		"type" : "gray"
	},
	{
		"coord" : [
			"[43, 11]"
		],
		"type" : "flag"
	},
	{
		"coord" : [
			"[33,10]",
			"[35,10]",
			"[29,10]",
			"[34, 7]"

		],
		"type" : "magic_block"
	},
	{
		"coord" : [
			"[33,9]",
			"[35,9]",
			"[29,9]",
			"[34, 6]"
		],
		"type" : "coin"
	},
	{
		"coord" : [
			"[35, 12]"
		],
		"type" : "goomba"
	},
	{
		"coord" : [
			"[0,11]"
		],
		"type" : "mario"
	}
]